Array
(
    [0] => /index.php?s=user-center-qqlogin.html
    [1] => javascript:;
    [2] => javascript:void(0);
    [3] => https://www.kankanwu.com/Action/
    [8] => /vod-search-wd-%E6%96%87%E6%AD%A6%E8%B6%85-p-1.html
    [9] => /Action/cisha2020/
    [10] => /Action/shenqianzhiri/
    [11] => /Action/tianyuantupojuchangban/
    [12] => /Action/mingyunzhiyetianzhibeiⅢchunzhige/
    [13] => /Action/canque/
    [14] => /Action/xunzhaoshouyi3/
    [15] => /Action/xunzhaoshouyi2/
    [17] => /zhuanti/guangmangzhangxinchengdedadangshishuilaoxigubaokuanyuding/
    [18] => /zhuanti//
    [19] => /zhuanti/zhonghuiguochankongbupian/
    [20] => /zhuanti/wanwanmeixiangdaoqichehua/
    [21] => /zhuanti/wuyidangqingchundianyingd/
    [22] => /zhuanti/2015nian5yuenadiyingshiqi/
    [23] => /zhuanti/xiangshengxiangkexiangaix/
    [24] => /zhuanti/zhuluojiyinlingxiongfengg/
    [25] => /zhuanti/liuyiertongjiexionghaizix/
    [26] => /zhuanti/doubifuzibaozoudayinmu/
    [27] => /zhuanti/kongbupianjingsongdelingh/
    [28] => /zhuanti/2015nian7yuenadiyingshiqi/
    [29] => /zhuanti/fuxingwuxiadianyingdeNzho/
    [30] => /zhuanti/zhongguorenaikanshimeyang/
    [31] => /zhuanti/ziyoubianshenzhongjiwuqiy/
    [32] => /zhuanti/haolaiwudaoyanxinshili50r/
    [33] => /faq/
    [34] => /faq/qvod/
)
