Array
(
    [0] => /index.php?s=user-center-qqlogin.html
    [1] => javascript:;
    [2] => javascript:void(0);
    [3] => https://www.kankanwu.com/Action/
    [8] => /vod-search-wd-%E9%98%9A%E5%AE%B6%E4%BC%9F-p-1.html
    [9] => /Action/nuhuo/
    [10] => /Action/shouerdazuozhan/
    [11] => /Action/samaliya/
    [12] => /Action/wushunaodongjing/
    [13] => /Action/shentandazhanguoyu/
    [14] => /Action/kelaerjinkuang2/
    [15] => /Action/shentandazhanyueyu/
    [17] => /zhuanti/guangmangzhangxinchengdedadangshishuilaoxigubaokuanyuding/
    [18] => /zhuanti//
    [19] => /zhuanti/zhonghuiguochankongbupian/
    [20] => /zhuanti/wanwanmeixiangdaoqichehua/
    [21] => /zhuanti/wuyidangqingchundianyingd/
    [22] => /zhuanti/2015nian5yuenadiyingshiqi/
    [23] => /zhuanti/xiangshengxiangkexiangaix/
    [24] => /zhuanti/zhuluojiyinlingxiongfengg/
    [25] => /zhuanti/liuyiertongjiexionghaizix/
    [26] => /zhuanti/doubifuzibaozoudayinmu/
    [27] => /zhuanti/kongbupianjingsongdelingh/
    [28] => /zhuanti/2015nian7yuenadiyingshiqi/
    [29] => /zhuanti/fuxingwuxiadianyingdeNzho/
    [30] => /zhuanti/zhongguorenaikanshimeyang/
    [31] => /zhuanti/ziyoubianshenzhongjiwuqiy/
    [32] => /zhuanti/haolaiwudaoyanxinshili50r/
    [33] => /faq/
    [34] => /faq/qvod/
)
