Array
(
    [0] => /index.php/index/index/page/1.html
    [2] => javascript:;
    [3] => /index.php/index/index/page/2.html
    [4] => /index.php/index/index/page/3.html
    [5] => /index.php/index/index/page/4.html
    [6] => /index.php/index/index/page/5.html
    [8] => /index.php/index/index/page/489.html
)
