Array
(
    [0] => javascript:;
    [1] => /vod/363135.html
    [2] => /vod/68055.html
    [3] => /vod/303134.html
    [4] => /vod/351292.html
    [5] => /vod/351299.html
    [6] => /vod/351314.html
    [7] => /vod/312022.html
    [8] => /vod/332185.html
    [9] => /vod/339257.html
    [10] => /vod/112857.html
    [11] => /vod/362939.html
    [12] => /vod/362937.html
    [13] => /vod/361805.html
    [14] => /vod/361810.html
    [15] => /vod/112273.html
    [16] => /vod/301122.html
    [17] => /vod/361808.html
    [18] => /vod/363156.html
    [19] => /vod/351342.html
    [20] => /vod/351341.html
    [21] => /vod/362804.html
    [22] => /vod/351160.html
    [23] => /vod/351396.html
    [24] => /vod/351482.html
    [26] => /vod/79312.html
    [27] => /vod/356177.html
    [28] => /vod/76686.html
    [29] => /vod/361190.html
    [30] => /vod/361039.html
    [31] => /vod/361038.html
    [32] => /vod/360861.html
    [33] => /vod/348281.html
    [34] => /vod/358955.html
    [35] => /vod/358790.html
    [36] => /vod/244135.html
    [37] => https://fh6666.net/?agent=jas
    [38] => https://ab2277.net/?agent=momoab
    [39] => https://sa999.net/
    [40] => https://dg66.net/
    [41] => https://www.eynytv.com/
    [42] => https://lovetvshow.tv
    [43] => https://tv99kubo.tv/
    [44] => https://ps66.net/?agent=jas1
    [45] => https://win1122.net/
    [46] => https://casinotw.net/baccarat/
    [47] => https://imaple.tv/
    [48] => https://539tw.net/
    [49] => https://lotto22.net/
    [50] => https://cali77.net/
    [51] => https://ddnews.tw/
    [52] => https://imaple.co
    [53] => https://imaple.tv
    [54] => https://gimy.hk
    [55] => https://gimy.tw
    [56] => https://duckvod.com
    [57] => javascript:scroll(0,0)
)
