Array
(
    [0] => /help/
    [1] => thff.html
    [2] => /help/sdimg.html
    [3] => javascript:void(0);
    [5] => /index.php/index/index/page/1.html
    [7] => javascript:;
    [8] => /index.php/index/index/page/2.html
    [9] => /index.php/index/index/page/3.html
    [10] => /index.php/index/index/page/4.html
    [11] => /index.php/index/index/page/5.html
    [13] => /index.php/index/index/page/542.html
)
