Array
(
    [0] => /index.php?s=user-center-qqlogin.html
    [1] => javascript:;
    [2] => javascript:void(0);
    [3] => https://www.kankanwu.com/Action/
    [8] => /vod-search-wd-%E5%B8%83%E8%8E%B1%E6%81%A9%C2%B7%E5%AE%89%E5%BE%B7%E9%B2%81%C2%B7%E9%97%A8%E5%A4%9A%E8%90%A8-p-1.html
    [9] => /Action/wangmingjiuhuche2022/
    [10] => /Action/xinbianfuxia/
    [11] => /Action/shenmihaiyu/
    [12] => /Action/duye2/
    [13] => /Action/tezhongbuduisheyanqiyuan/
    [14] => /Action/renzhinu/
    [15] => /Action/xielingzhidixiajinglong/
    [17] => /zhuanti/guangmangzhangxinchengdedadangshishuilaoxigubaokuanyuding/
    [18] => /zhuanti//
    [19] => /zhuanti/zhonghuiguochankongbupian/
    [20] => /zhuanti/wanwanmeixiangdaoqichehua/
    [21] => /zhuanti/wuyidangqingchundianyingd/
    [22] => /zhuanti/2015nian5yuenadiyingshiqi/
    [23] => /zhuanti/xiangshengxiangkexiangaix/
    [24] => /zhuanti/zhuluojiyinlingxiongfengg/
    [25] => /zhuanti/liuyiertongjiexionghaizix/
    [26] => /zhuanti/doubifuzibaozoudayinmu/
    [27] => /zhuanti/kongbupianjingsongdelingh/
    [28] => /zhuanti/2015nian7yuenadiyingshiqi/
    [29] => /zhuanti/fuxingwuxiadianyingdeNzho/
    [30] => /zhuanti/zhongguorenaikanshimeyang/
    [31] => /zhuanti/ziyoubianshenzhongjiwuqiy/
    [32] => /zhuanti/haolaiwudaoyanxinshili50r/
    [33] => /faq/
    [34] => /faq/qvod/
)
