Array
(
    [0] => /index.php?s=user-center-qqlogin.html
    [1] => javascript:;
    [2] => javascript:void(0);
    [3] => https://www.kankanwu.com/Action/
    [8] => /vod-search-wd-%E4%BA%95%E5%B2%97-p-1.html
    [9] => /vod-search-wd-%E8%B5%B5%E9%B9%AD%E6%B1%9F-p-1.html
    [10] => /vod-search-wd-%E8%A2%81%E5%92%8C%E5%B9%B3-p-1.html
    [11] => /Action/tiexuezhanshiliewu/
    [12] => /Action/huiyingren/
    [13] => /Action/monv2/
    [14] => /Action/shentandazhan/
    [15] => /Action/leishen4aiyuleiting/
    [16] => /Action/zhuangzhilingyun2duxingxia/
    [17] => /Action/qiyiboshi2fengkuangduoyuanyuzhou/
    [19] => /zhuanti/guangmangzhangxinchengdedadangshishuilaoxigubaokuanyuding/
    [20] => /zhuanti//
    [21] => /zhuanti/zhonghuiguochankongbupian/
    [22] => /zhuanti/wanwanmeixiangdaoqichehua/
    [23] => /zhuanti/wuyidangqingchundianyingd/
    [24] => /zhuanti/2015nian5yuenadiyingshiqi/
    [25] => /zhuanti/xiangshengxiangkexiangaix/
    [26] => /zhuanti/zhuluojiyinlingxiongfengg/
    [27] => /zhuanti/liuyiertongjiexionghaizix/
    [28] => /zhuanti/doubifuzibaozoudayinmu/
    [29] => /zhuanti/kongbupianjingsongdelingh/
    [30] => /zhuanti/2015nian7yuenadiyingshiqi/
    [31] => /zhuanti/fuxingwuxiadianyingdeNzho/
    [32] => /zhuanti/zhongguorenaikanshimeyang/
    [33] => /zhuanti/ziyoubianshenzhongjiwuqiy/
    [34] => /zhuanti/haolaiwudaoyanxinshili50r/
    [35] => /faq/
    [36] => /faq/qvod/
)
