Array
(
    [0] => /index.php?s=user-center-qqlogin.html
    [1] => javascript:;
    [2] => javascript:void(0);
    [3] => https://www.kankanwu.com/Action/
    [8] => /vod-search-wd-%E9%A9%AC%E5%B0%BC%C2%B7%E6%B2%99%E6%81%A9%E5%8D%A1%E5%B0%94-p-1.html
    [9] => /Action/tiexuezhanshiliewu/
    [10] => /Action/huiyingren/
    [11] => /Action/monv2/
    [12] => /Action/shentandazhan/
    [13] => /Action/leishen4aiyuleiting/
    [14] => /Action/zhuangzhilingyun2duxingxia/
    [15] => /Action/qiyiboshi2fengkuangduoyuanyuzhou/
    [17] => /zhuanti/guangmangzhangxinchengdedadangshishuilaoxigubaokuanyuding/
    [18] => /zhuanti//
    [19] => /zhuanti/zhonghuiguochankongbupian/
    [20] => /zhuanti/wanwanmeixiangdaoqichehua/
    [21] => /zhuanti/wuyidangqingchundianyingd/
    [22] => /zhuanti/2015nian5yuenadiyingshiqi/
    [23] => /zhuanti/xiangshengxiangkexiangaix/
    [24] => /zhuanti/zhuluojiyinlingxiongfengg/
    [25] => /zhuanti/liuyiertongjiexionghaizix/
    [26] => /zhuanti/doubifuzibaozoudayinmu/
    [27] => /zhuanti/kongbupianjingsongdelingh/
    [28] => /zhuanti/2015nian7yuenadiyingshiqi/
    [29] => /zhuanti/fuxingwuxiadianyingdeNzho/
    [30] => /zhuanti/zhongguorenaikanshimeyang/
    [31] => /zhuanti/ziyoubianshenzhongjiwuqiy/
    [32] => /zhuanti/haolaiwudaoyanxinshili50r/
    [33] => /faq/
    [34] => /faq/qvod/
)
